print   - 8073  -  (  - 24488  ) ;
 v =  352896 ;
print   -  ( 185466  +  -  (  -  -  (  y  )  )  ) ;
 -  -  ( 244671  ) ;
 c =   - 399242 ;
print   (  (  (  -  -  -  -  (  (  -  u  )  )  )  )  ) ;
 -  l  / 143720  -  g ;
17541 ;
print   -  -  n  /  -  - 136735  ^ 349185  +  q ;
print   w  - 270293  ^  (  -  b  +  -  - 205415  ) ;
 u  *  (  (  -  (  (  m  ^  (  ( 429626  )  )  )  )  )  ) ;
print   (  ( 195188  )  ) ;
 w =   (  -  i  ) ;
 -  - 104305 ;
 (  (  (  -  (  -  -  j  )  )  )  ) ;
 m =   p  / 148064  * 224168 ;
print   (  n  -  ( 146059  )  ) ;
 -  -  l ;
print   -  (  p  -  -  -  r  ) ;
 c =   t  +  - 30694 ;
print   -  m ;
 h =   ( 366222  ^ 307855  -  o  ) ;
print   (  - 423100  ) ;
 w =   (  -  -  - 35633  ) ;
print   (  -  j  ) ;
print   -  -  ( 364508  ) ;
print   (  -  (  ( 265256  )  )  ) ;
 ( 214013  ) ;
print  227673  *  l ;
print   - 44822 ;
 l =  458160  -  -  x ;
 m =   (  - 50000  ) ;
 e =   (  - 310378  +  d  ) ;
 z =   ( 175696  +  -  -  (  (  g  ^ 108795  +  -  (  y  - 207930  / 470790  -  - 386236  )  )  )  ) ;
 p =  264432  - 81412 ;
print 10;
 f =   m  *  (  (  -  w  / 62302  -  g  )  ) ;
 c =   -  e ;
 v =   ( 324108  ) ;
 k =   -  v ;
 k =   x  / 353231 ;
 k =   k  +  ( 62339  ) ;
print   (  (  c  )  ) ;
 (  -  t  ) ;
 v  /  -  (  h  - 147804  +  a  *  -  (  (  g  ^  (  b  )  )  )  ) ;
 (  -  -  z  * 344157  - 354099  ^  (  ( 102274  + 30851  )  )  ) ;
 (  (  -  q  )  ) ;
 j  / 362699  *  (  ( 490758  )  ) ;
 (  (  (  (  -  -  -  z  )  )  )  ) ;
 -  - 209452 ;
print   i  *  (  -  ( 298384  - 483716  )  ) ;
 r =   -  x ;
print   -  -  z  /  (  (  j  +  -  ( 334042  -  (  e  )  )  )  ) ;
 l =   -  -  i ;
print   (  k  -  ( 403104  ^  -  -  (  -  (  (  - 252261  / 197806  )  )  )  )  ) ;
140696 ;
 m =   ( 320359  ) ;
print   ( 384218  ) ;
print   -  - 271259  - 116705 ;
 n  +  - 99619  ^ 168790 ;
101005  ^  ( 75244  ) ;
 (  -  w  ) ;
 y =  130463  *  o  * 334544 ;
 -  (  k  -  r  ) ;
 l =  273614 ;
print   (  (  - 361191  ^  -  -  t  )  ) ;
 ( 133606  ) ;
 d  /  (  - 148448  ) ;
print  104014  -  (  p  ^  ( 444978  )  ) ;
 n =   z  * 111409 ;
 h  * 18306 ;
print   -  e  -  s ;
 u =  49099 ;
print   (  (  ( 240161  -  -  ( 175238  )  )  )  ) ;
print  16133  *  -  -  - 411065  *  - 175933  /  (  -  z  +  w  + 29636  ) ;
print   - 178708 ;
490662  +  ( 328890  +  l  ) ;
print   (  g  ) ;
print   -  (  -  j  / 477129  +  l  ) ;
 s =   ( 254274  ) ;
print   - 331431  -  -  (  -  -  -  (  h  ^ 173320  +  (  (  d  )  )  )  ) ;
 s =   ( 222643  ) ;
 q =   -  g ;
 r =   (  s  ) ;
183953  *  (  (  -  h  -  -  (  (  -  -  -  - 315806  - 126263  )  )  )  ) ;
 (  l  ) ;
 e =   -  (  b  -  -  (  s  )  ) ;
 f =  237939  - 101157  ^  (  a  ) ;
print   -  f ;
 o =   f  *  f ;
